Creative Portfolio
…
friends_edges

## # A tibble: 30 x 4
##    from           to             weight type    
##    <chr>          <chr>           <dbl> <chr>   
##  1 Joey Tribbiani Chandler Bing      10 friends 
##  2 Ross Geller    Joey Tribbiani     13 friends 
##  3 Ross Geller    Chandler Bing      11 friends 
##  4 Rachel Green   Ross Geller        10 benefits
##  5 Ross Geller    Phoebe Buffay       8 friends 
##  6 Chandler Bing  Phoebe Buffay       7 friends 
##  7 Monica Geller  Phoebe Buffay       8 friends 
##  8 Monica Geller  Ross Geller         7 siblings
##  9 Phoebe Buffay  Rachel Green        9 friends 
## 10 Monica Geller  Rachel Green        5 friends 
## # ... with 20 more rows
…
