…
b99_nodes <- read_delim("b99Nodes.csv", delim = ",")

## Rows: 22 Columns: 6
## -- Column specification --------------------------------------------------------
## Delimiter: ","
## chr (5): Names, Gender, Occupation, Height, personality
## dbl (1): Code
## 
## i Use `spec()` to retrieve the full column specification for this data.
## i Specify the column types or set `show_col_types = FALSE` to quiet this message.

b99_nodes

## # A tibble: 22 x 6
##     Code Names     Gender Occupation Height personality
##    <dbl> <chr>     <chr>  <chr>      <chr>  <chr>      
##  1     1 Jake      m      detective  mid    E          
##  2     2 Amy       f      detective  mid    A          
##  3     3 Gina      f      assistant  mid    E          
##  4     4 Charles   m      detective  short  A          
##  5     5 Holt      m      captain    tall   I          
##  6     6 Terry     m      sergeant   tall   A          
##  7     7 Kevin     m      professor  tall   I          
##  8     8 Cheddar   m      dog        short  E          
##  9     9 Scully    m      detective  tall   A          
## 10    10 Hitchcock m      detective  mid    A          
## # ... with 12 more rows

b99_edges <- read_delim("b99Edges.csv", delim = ",")

## Rows: 60 Columns: 4
## -- Column specification --------------------------------------------------------
## Delimiter: ","
## chr (1): type_of_R
## dbl (3): from, to, weight
## 
## i Use `spec()` to retrieve the full column specification for this data.
## i Specify the column types or set `show_col_types = FALSE` to quiet this message.

b99_edges

## # A tibble: 60 x 4
##     from    to weight type_of_R   
##    <dbl> <dbl>  <dbl> <chr>       
##  1     1     2     13 Dating      
##  2     1     5      9 Professional
##  3     1     3     12 Friend      
##  4     1     4     13 Friend      
##  5     1     6      8 Professional
##  6     1     7      8 Friend      
##  7     1     8      3 Friend      
##  8     1     9      5 Professional
##  9     1    10      5 Professional
## 10     1    11     11 Friend      
## # ... with 50 more rows
…
