…
<img src="index_files/figure-html/Coord_circular-1.png" width="480" />

**Story:** The circular graph does show the interactions each character had with the other. The thickest line is the one shared between the two main characters and that does correlate to what we saw in the movie.



## Graph 2

Brief introduction of your chosen data set Describe the interesting
columns and what they mean


```
## # A tibble: 133,137 x 13
##    date       admin1   admin2 market latitude longitude category commodity unit 
##    <date>     <chr>    <chr>  <chr>     <dbl>     <dbl> <chr>    <chr>     <chr>
##  1 1994-01-15 Delhi    Delhi  Delhi      28.7      77.2 cereals~ Rice      KG   
##  2 1994-01-15 Delhi    Delhi  Delhi      28.7      77.2 cereals~ Wheat     KG   
##  3 1994-01-15 Delhi    Delhi  Delhi      28.7      77.2 miscell~ Sugar     KG   
##  4 1994-01-15 Delhi    Delhi  Delhi      28.7      77.2 oil and~ Oil (mus~ KG   
##  5 1994-01-15 Gujarat  Ahmad~ Ahmed~     23.0      72.6 cereals~ Rice      KG   
##  6 1994-01-15 Gujarat  Ahmad~ Ahmed~     23.0      72.6 cereals~ Wheat     KG   
##  7 1994-01-15 Gujarat  Ahmad~ Ahmed~     23.0      72.6 miscell~ Sugar     KG   
##  8 1994-01-15 Gujarat  Ahmad~ Ahmed~     23.0      72.6 oil and~ Oil (mus~ KG   
##  9 1994-01-15 Himacha~ Shimla Shimla     31.1      77.2 cereals~ Rice      KG   
## 10 1994-01-15 Himacha~ Shimla Shimla     31.1      77.2 miscell~ Sugar     KG   
## # ... with 133,127 more rows, and 4 more variables: pricetype <chr>,
## #   currency <chr>, price <dbl>, usdprice <dbl>
```
…
