Creative Portfolio
…
##  3 Mrs. Hudson        F           14
##  4 Jim Moriarty       M            8
##  5 Mycroft Holmes     M            9
##  6 Irene Adler        F            2
##  7 Mary Watson        F            7
##  8 Molly Hooper       F           13
##  9 Inspector Lestrade M           13
## 10 Euros Holmes       F            3
## 11 Anderson           M            6
## 12 Culverton Smith    M            1
## 13 Kity Riley         F            1
## 14 Mr. Holmes         M            2
## 15 Mrs. Holmes        F            2

## # A tibble: 34 x 4
##     From    To Weight Type        
##    <dbl> <dbl>  <dbl> <chr>       
##  1     1     2      3 Friend      
##  2     1     4      3 Enemy       
##  3     1     5      2 Family      
##  4     1     3      3 Renter      
##  5     1     7      2 Family      
##  6     1     8      3 Professional
##  7     1     6      3 Lovers      
##  8     1     9      2 Professional
##  9     1    10      1 Family      
## 10     1    11      1 Professional
## # ... with 24 more rows
…
