Creative Portfolio
…
##  4 Isabella            F      Extrovert       4
##  5 Phineas             M      Extrovert       5
##  6 Ferb                M      Introvert       6
##  7 Baljeet             M      Introvert       7
##  8 Buford              M      Extrovert       8
##  9 Perry the Platypus  M      Introvert       9
## 10 Major Monogram      M      Extrovert      10
## 11 Jeremy              M      Introvert      11
## 12 Heinz Doofenshmirtz M      Introvert      12
## 13 Adyson Sweetwater   F      Extrovert      13
## 14 Gretchen            F      Extrovert      14
## 15 Karl                M      Introvert      15
## 16 Irving Dubois       M      Extrovert      16

## # A tibble: 22 x 5
##    from               to             weightage relationship  num.
##    <chr>              <chr>              <dbl> <chr>        <dbl>
##  1 Candace            Stacy                  4 Friends          1
##  2 Candace            Linda                  7 Family           2
##  3 Phineas            Isabella              11 Friends          3
##  4 Phineas            Baljeet                5 Friends          4
##  5 Baljeet            Isabella               2 Friends          5
##  6 Baljeet            Ferb                   1 Friends          6
##  7 Baljeet            Buford                 8 Friends          7
##  8 Phineas            Ferb                   6 Family           8
##  9 Perry the Platypus Major Monogram         2 Professional     9
## 10 Major Monogram     Karl                   2 Professional    10
## # ... with 12 more rows
…
##  4 Isabella            F      Extrovert       4
##  5 Phineas             M      Extrovert       5
##  6 Ferb                M      Introvert       6
##  7 Baljeet             M      Introvert       7
##  8 Buford              M      Extrovert       8
##  9 Perry the Platypus  M      Introvert       9
## 10 Major Monogram      M      Extrovert      10
## 11 Jeremy              M      Introvert      11
## 12 Heinz Doofenshmirtz M      Introvert      12
## 13 Adyson Sweetwater   F      Extrovert      13
## 14 Gretchen            F      Extrovert      14
## 15 Karl                M      Introvert      15
## 16 Irving Dubois       M      Extrovert      16

## # A tibble: 22 x 5
##    from               to             weightage relationship  num.
##    <chr>              <chr>              <dbl> <chr>        <dbl>
##  1 Candace            Stacy                  4 Friends          1
##  2 Candace            Linda                  7 Family           2
##  3 Phineas            Isabella              11 Friends          3
##  4 Phineas            Baljeet                5 Friends          4
##  5 Baljeet            Isabella               2 Friends          5
##  6 Baljeet            Ferb                   1 Friends          6
##  7 Baljeet            Buford                 8 Friends          7
##  8 Phineas            Ferb                   6 Family           8
##  9 Perry the Platypus Major Monogram         2 Professional     9
## 10 Major Monogram     Karl                   2 Professional    10
## # ... with 12 more rows
…
##  4     4 Isabella            Female Extrovert       4
##  5     5 Phineas             Male   Extrovert       5
##  6     6 Ferb                Male   Introvert       6
##  7     7 Baljeet             Male   Introvert       7
##  8     8 Buford              Male   Extrovert       8
##  9     9 Perry the Platypus  Male   Introvert       9
## 10    10 Major Monogram      Male   Extrovert      10
## 11    11 Jeremy              Male   Introvert      11
## 12    12 Heinz Doofenshmirtz Male   Introvert      12
## 13    13 Adyson Sweetwater   Female Extrovert      13
## 14    14 Gretchen            Female Extrovert      14
## 15    15 Karl                Male   Introvert      15
## 16    16 Irving Dubois       Male   Extrovert      16

## # A tibble: 22 x 2
##     from    to
##    <int> <int>
##  1     1     2
##  2     1     3
##  3     5     4
##  4     5     7
##  5     7     4
##  6     7     6
##  7     7     8
##  8     5     6
##  9     9    10
## 10    10    15
## # ... with 12 more rows
…
