…
## Introduction

This workshop taught me something that I would never opt to do on my own. Learning R gave me a new tool to imagine and create new designs. Analyzing and reading data can give so many creative outcomes.  

## Graph 1

**This data is about the adoption of Dogs in the US.  The different criteria on which the dogs are adopted is described in this data. The different varieties of breeds and color makes this data interesting.**


```
## # A tibble: 58,180 x 6
##    breed_primary                  color_primary  age   sex   size  contact_state
##    <chr>                          <chr>          <chr> <chr> <chr> <chr>        
##  1 American Staffordshire Terrier White / Cream  Seni~ Male  Medi~ NV           
##  2 Pit Bull Terrier               Brown / Choco~ Adult Male  Large NV           
##  3 Shepherd                       Brindle        Adult Male  Large NV           
##  4 German Shepherd Dog            <NA>           Baby  Fema~ Large NV           
##  5 Dachshund                      <NA>           Young Male  Small NV           
##  6 Boxer                          <NA>           Baby  Male  Medi~ NV           
##  7 Italian Greyhound              <NA>           Baby  Fema~ Small NV           
##  8 Cattle Dog                     <NA>           Baby  Male  Medi~ NV           
##  9 Cattle Dog                     <NA>           Baby  Fema~ Medi~ NV           
## 10 Cattle Dog                     <NA>           Baby  Male  Medi~ NV           
## # ... with 58,170 more rows
```
…
**This graph describes the top 10 breeds which are adopted.**

<img src="index_files/figure-html/plot-1-1.png" width="672" />

**In this graph the tools like reorder, arrange, group by and filter are used.  Trying out the function of scale filler brewer and selecting an appropriate color palette makes this graph more interesting and easy to read too.**

## Graph 2

**This data set is based on the TV show 'Friends' , the information collected is based on the conversation and interaction between each person in the chosen episodes.**


```
## # A tibble: 22 x 7
##    Numbers Name             Sex   Profession     `Animal Lover` `Relationship ~`
##      <dbl> <chr>            <chr> <chr>          <chr>          <chr>           
##  1       1 "Chandler Bing " M     "statistical ~ No             Dating          
##  2       2 "Phoebe Buffay"  F     "Self - taugh~ Yes            Dating          
##  3       3 "Rachel Green"   F     "Waitress"     Yes            Dating          
##  4       4 "Ross Geller"    M     "Paleantologi~ Yes            Divorced        
##  5       5 "Monica Geller"  F     "Chef"         Yes            Dating          
##  6       6 "Joey Tribbiani" M     "Actor"        Yes            Single          
##  7       7 "Paolo"          M     "Actor"        Yes            Dating          
##  8       8 "Jill Goodacre"  F     "Model"        <NA>           Single          
##  9       9 "Mr. Heckles"    M     "Retired"      No             Widower         
## 10      10 "Jack Geller "   M     "Lawyer"       Yes            Married         
## # ... with 12 more rows, and 1 more variable: `Character Trait` <chr>
```

```
## # A tibble: 50 x 4
##    `from `    to Weight Type      
##      <dbl> <dbl>  <dbl> <chr>     
##  1       2     5     12 Friends   
##  2       1     8      1 Inftuation
##  3       5     1     10 Friends   
##  4       6     1     11 Roommates 
##  5       5     6      9 Friends   
##  6       4     2     12 Friends   
##  7       3     4     14 Inftuation
##  8       4     6     13 Friends   
##  9       3     9      1 Neighbours
## 10       2     9      1 Neighbours
## # ... with 40 more rows
```
…
