Creative Portfolio
…
Graph 3

The Simpsons Dataset

I have decided to use The Simpsons as the show I will be using for the networks created below. I have taken a list of characters and their connections with each other from Season 03 Episode 05. In the data set, the nodes contain the columns of their name, sex, occupation and hair colour. In the edges dataset, it contains the to and from, the weight and the amount of dialogues exchanged between the two characters in that particular episode.

## # A tibble: 29 × 5
##       id names               sex   occupation       `hair color`
##    <dbl> <chr>               <chr> <chr>            <chr>       
##  1     1 Homer Simpson       M     Safety Inspector None        
##  2     2 Marge Simpson       F     Homemaker        Blue        
##  3     3 Maggie Simpson      F     Baby             Blonde      
##  4     4 Bart Simpson        M     Student          Blonde      
##  5     5 Lisa Simpson        F     Student          Blonde      
##  6     6 Milhouse Van Houten M     Student          Blue        
##  7     7 Sherri Mackleberry  F     Student          Purple      
##  8     8 Terri Mackleberry   F     Student          Purple      
##  9     9 Martin Prince       M     Student          Blonde      
## 10    10 Otto Mann           M     Bus Driver       Black       
## # … with 19 more rows

## # A tibble: 44 × 5
##     from    to weight relationship `dialogues exchanged`
##    <dbl> <dbl>  <dbl> <chr>                        <dbl>
##  1     1     5      8 family                           5
##  2     4     6      9 friends                         10
##  3     4     5      6 family                           3
##  4     7     4      2 friends                          1
##  5     8     4      2 friends                          1
##  6     7     6      3 friends                          1
##  7     8     6      3 friends                          1
##  8     9     6      3 friends                          1
##  9    10     6      1 acquaintance                     1
## 10    10     7      1 acquaintance                     1
## # … with 34 more rows
…
VisNetwork Data

## # A tibble: 29 × 5
##       id names               sex   occupation       `hair color`
##    <dbl> <chr>               <chr> <chr>            <chr>       
##  1     1 Homer Simpson       M     Safety Inspector None        
##  2     2 Marge Simpson       F     Homemaker        Blue        
##  3     3 Maggie Simpson      F     Baby             Blonde      
##  4     4 Bart Simpson        M     Student          Blonde      
##  5     5 Lisa Simpson        F     Student          Blonde      
##  6     6 Milhouse Van Houten M     Student          Blue        
##  7     7 Sherri Mackleberry  F     Student          Purple      
##  8     8 Terri Mackleberry   F     Student          Purple      
##  9     9 Martin Prince       M     Student          Blonde      
## 10    10 Otto Mann           M     Bus Driver       Black       
## # … with 19 more rows

## # A tibble: 44 × 5
##     from    to weight relationship `dialogues exchanged`
##    <dbl> <dbl>  <dbl> <chr>                        <dbl>
##  1     1     5      8 family                           5
##  2     4     6      9 friends                         10
##  3     4     5      6 family                           3
##  4     7     4      2 friends                          1
##  5     8     4      2 friends                          1
##  6     7     6      3 friends                          1
##  7     8     6      3 friends                          1
##  8     9     6      3 friends                          1
##  9    10     6      1 acquaintance                     1
## 10    10     7      1 acquaintance                     1
## # … with 34 more rows

## # A tibble: 29 × 5
##       id label               sex   occupation       group 
##    <dbl> <chr>               <chr> <chr>            <chr> 
##  1     1 Homer Simpson       M     Safety Inspector None  
##  2     2 Marge Simpson       F     Homemaker        Blue  
##  3     3 Maggie Simpson      F     Baby             Blonde
##  4     4 Bart Simpson        M     Student          Blonde
##  5     5 Lisa Simpson        F     Student          Blonde
##  6     6 Milhouse Van Houten M     Student          Blue  
##  7     7 Sherri Mackleberry  F     Student          Purple
##  8     8 Terri Mackleberry   F     Student          Purple
##  9     9 Martin Prince       M     Student          Blonde
## 10    10 Otto Mann           M     Bus Driver       Black 
## # … with 19 more rows

## # A tibble: 44 × 5
##     from    to weight relationship `dialogues exchanged`
##    <dbl> <dbl>  <dbl> <chr>                        <dbl>
##  1     1     5      8 family                           5
##  2     4     6      9 friends                         10
##  3     4     5      6 family                           3
##  4     7     4      2 friends                          1
##  5     8     4      2 friends                          1
##  6     7     6      3 friends                          1
##  7     8     6      3 friends                          1
##  8     9     6      3 friends                          1
##  9    10     6      1 acquaintance                     1
## 10    10     7      1 acquaintance                     1
## # … with 34 more rows
…
