…
```
## # A tibble: 34 x 4
##     From    To Weight Type        
##    <dbl> <dbl>  <dbl> <chr>       
##  1     1     2      3 Friend      
##  2     1     4      3 Enemy       
##  3     1     5      2 Family      
##  4     1     3      3 Renter      
##  5     1     7      2 Family      
##  6     1     8      3 Professional
##  7     1     6      3 Lovers      
##  8     1     9      2 Professional
##  9     1    10      1 Family      
## 10     1    11      1 Professional
## # ... with 24 more rows
```
…
