Creative Portfolio
…
##  4     4 Carlton Lassiter   M     White      1968 SBPD Head Detective                    1
##  5     5 Karen Vick         F     White      1968 SBPD Chief                             1
##  6     6 Burton Guster      M     Black      1977 Pharmaceutical Salesman                1
##  7     7 Juliet Lynn O'Hara F     White      1981 SBPD Detective                         1
##  8     8 Henry Spencer      M     White      1958 Retired SBPD Detective                 1
##  9     9 Buzz McNab         M     White      1975 SBPD Junior Detective                  1
## 10    10 Woody Strode       M     White      1954 Coroner                                1
## 11    11 Reception Lady     F     Black        NA Police Officer                         1
## 12    12 Katarina McCallum  F     Other        NA Heiress                                1
## 13    13 Police Artist      M     White        NA Sketch Artist                          1
## 14    14 Mr. McCallum       M     White        NA Rich Guy                               1
## 15    15 Kingfisher         M     White        NA Patrol Officer                         1
## 16    16 Thrift Store Guy   M     White        NA Worker                                 1

## # A tibble: 21 x 5
##     from    to weightage relationship relationship_changed
##    <dbl> <dbl>     <dbl> <chr>        <chr>               
##  1     1     2         1 <NA>         <NA>                
##  2     1     3        15 Professional Professional        
##  3     1     4        20 Competition  Close Friend        
##  4     1    11         4 <NA>         <NA>                
##  5     1     9         1 Stranger     Friend              
##  6     1     6        32 Best Friend  Best Friend         
##  7     1    12         5 Professional Romantic            
##  8     1    13         3 <NA>         <NA>                
##  9     1    14         4 <NA>         <NA>                
## 10     1    15         1 <NA>         <NA>                
## # ... with 11 more rows
…
##  4     4 Carlton Lassiter   M     White      1968 SBPD Head Detective                    1
##  5     5 Karen Vick         F     White      1968 SBPD Chief                             1
##  6     6 Burton Guster      M     Black      1977 Pharmaceutical Salesman                1
##  7     7 Juliet Lynn O'Hara F     White      1981 SBPD Detective                         1
##  8     8 Henry Spencer      M     White      1958 Retired SBPD Detective                 1
##  9     9 Buzz McNab         M     White      1975 SBPD Junior Detective                  1
## 10    10 Woody Strode       M     White      1954 Coroner                                1
## 11    11 Reception Lady     F     Black        NA Police Officer                         1
## 12    12 Katarina McCallum  F     Other        NA Heiress                                1
## 13    13 Police Artist      M     White        NA Sketch Artist                          1
## 14    14 Mr. McCallum       M     White        NA Rich Guy                               1
## 15    15 Kingfisher         M     White        NA Patrol Officer                         1
## 16    16 Thrift Store Guy   M     White        NA Worker                                 1

## # A tibble: 21 x 5
##     from    to weightage relationship relationship_changed
##    <dbl> <dbl>     <dbl> <chr>        <chr>               
##  1     1     2         1 <NA>         <NA>                
##  2     1     3        15 Professional Professional        
##  3     1     4        20 Competition  Close Friend        
##  4     1    11         4 <NA>         <NA>                
##  5     1     9         1 Stranger     Friend              
##  6     1     6        32 Best Friend  Best Friend         
##  7     1    12         5 Professional Romantic            
##  8     1    13         3 <NA>         <NA>                
##  9     1    14         4 <NA>         <NA>                
## 10     1    15         1 <NA>         <NA>                
## # ... with 11 more rows
…
##  4     4 Carlton Lassiter   Male   White      1968 SBPD Head Detective                    1
##  5     5 Karen Vick         Female White      1968 SBPD Chief                             1
##  6     6 Burton Guster      Male   Black      1977 Pharmaceutical Salesman                1
##  7     7 Juliet Lynn O'Hara Female White      1981 SBPD Detective                         1
##  8     8 Henry Spencer      Male   White      1958 Retired SBPD Detective                 1
##  9     9 Buzz McNab         Male   White      1975 SBPD Junior Detective                  1
## 10    10 Woody Strode       Male   White      1954 Coroner                                1
## 11    11 Reception Lady     Female Black        NA Police Officer                         1
## 12    12 Katarina McCallum  Female Other        NA Heiress                                1
## 13    13 Police Artist      Male   White        NA Sketch Artist                          1
## 14    14 Mr. McCallum       Male   White        NA Rich Guy                               1
## 15    15 Kingfisher         Male   White        NA Patrol Officer                         1
## 16    16 Thrift Store Guy   Male   White        NA Worker                                 1

## # A tibble: 21 x 5
##     from    to weightage relationship relationship_changed
##    <dbl> <dbl>     <dbl> <chr>        <chr>               
##  1     1     2         1 <NA>         <NA>                
##  2     1     3        15 Professional Professional        
##  3     1     4        20 Competition  Close Friend        
##  4     1    11         4 <NA>         <NA>                
##  5     1     9         1 Stranger     Friend              
##  6     1     6        32 Best Friend  Best Friend         
##  7     1    12         5 Professional Romantic            
##  8     1    13         3 <NA>         <NA>                
##  9     1    14         4 <NA>         <NA>                
## 10     1    15         1 <NA>         <NA>                
## # ... with 11 more rows
…
