…
```
## # A tibble: 22 x 5
##    from               to             weightage relationship  num.
##    <chr>              <chr>              <dbl> <chr>        <dbl>
##  1 Candace            Stacy                  4 Friends          1
##  2 Candace            Linda                  7 Family           2
##  3 Phineas            Isabella              11 Friends          3
##  4 Phineas            Baljeet                5 Friends          4
##  5 Baljeet            Isabella               2 Friends          5
##  6 Baljeet            Ferb                   1 Friends          6
##  7 Baljeet            Buford                 8 Friends          7
##  8 Phineas            Ferb                   6 Family           8
##  9 Perry the Platypus Major Monogram         2 Professional     9
## 10 Major Monogram     Karl                   2 Professional    10
## # ... with 12 more rows
```
…
```
## # A tibble: 22 x 5
##    from               to             weightage relationship  num.
##    <chr>              <chr>              <dbl> <chr>        <dbl>
##  1 Candace            Stacy                  4 Friends          1
##  2 Candace            Linda                  7 Family           2
##  3 Phineas            Isabella              11 Friends          3
##  4 Phineas            Baljeet                5 Friends          4
##  5 Baljeet            Isabella               2 Friends          5
##  6 Baljeet            Ferb                   1 Friends          6
##  7 Baljeet            Buford                 8 Friends          7
##  8 Phineas            Ferb                   6 Family           8
##  9 Perry the Platypus Major Monogram         2 Professional     9
## 10 Major Monogram     Karl                   2 Professional    10
## # ... with 12 more rows
```
…
```
## # A tibble: 22 x 2
##     from    to
##    <int> <int>
##  1     1     2
##  2     1     3
##  3     5     4
##  4     5     7
##  5     7     4
##  6     7     6
##  7     7     8
##  8     5     6
##  9     9    10
## 10    10    15
## # ... with 12 more rows
```
…
