Creative Portfolio
…
## # A tibble: 30 x 13
##    name      id realname sex   race  birthyear sign  playedby height Citizenship
##    <chr>  <dbl> <chr>    <chr> <chr>     <dbl> <chr> <chr>    <chr>  <chr>      
##  1 Homel~     1 John     Male  White      1975 Scor~ Antony ~ 180 cm American   
##  2 Starl~     2 Annie J~ Fema~ White      1994 Canc~ Erin Mo~ 168 cm American   
##  3 Billy~     3 William~ Male  White      1972 Gemi~ Karl Ur~ 185 cm British    
##  4 Hughi~     4 Hugh Ca~ Male  White      1992 Taur~ Jack Qu~ 185 cm American   
##  5 Black~     5 <NA>     Male  Black      1988 Sagi~ Nathan ~ 188 cm American   
##  6 Trans~     6 <NA>     Male  White      1980 Libra Alex Ha~ 176 cm American   
##  7 Frenc~     7 Serge    Male  White      1985 Canc~ Tomer K~ 179 cm French Alg~
##  8 Storm~     8 Klara R~ Fema~ White      1982 Canc~ Aya Cash 154 cm Nazi German
##  9 The D~     9 Kevin M~ Male  White      1985 Canc~ Chace C~ 178 cm American   
## 10 Mothe~    10 Marvin ~ Male  Black      1974 Aries Laz Alo~ 182 cm American   
## # ... with 20 more rows, and 3 more variables: status <chr>, Species <chr>,
## #   Affiliation <chr>

## # A tibble: 73 x 4
##    from       to                weight type        
##    <chr>      <chr>              <dbl> <chr>       
##  1 Homelander Starlight              3 Professional
##  2 Homelander Billy Butcher          1 Enemy       
##  3 Homelander The Deep               4 Competition 
##  4 Homelander Madelyn Stillwell      5 Benefits    
##  5 Homelander Queen Maeve            2 Friends     
##  6 Homelander A-Train                3 Competition 
##  7 Homelander Ashley Barrett         3 Professional
##  8 Homelander Black Noir             2 Professional
##  9 Starlight  Billy Butcher          1 Friends     
## 10 Starlight  Hughie Campbell        6 Benefits    
## # ... with 63 more rows
…
