…
##  7 JO007 M     White      President's son 
##  8 PI008 M     White      CEO of bash     
##  9 JB009 M     Black      TV host         
## 10 BE010 F     Australian TV host         
## 11 DC011 M     Black      singer          
## 12 P012  M     Indian     Journalist      
## 13 JM013 F     European   w/o Randal      
## 14 AG014 M     Black      Journalist      
## 15 GT015 M     <NA>       <NA>            
## 16 DC016 F     Asian      Head of NASA    
## 17 EM017 M     White      <NA>            
## 18 BD018 M     White      Astronaut       
## 19 MM019 M     White      <NA>

## # A tibble: 39 x 4
##    from  to    weight `relation type`
##    <chr> <chr>  <dbl> <chr>          
##  1 AG014 RM001      2 situational    
##  2 AG014 KD002      1 situational    
##  3 BE010 JB009      6 professional   
##  4 BE010 RB003      1 situational    
##  5 BE010 RM001     10 benefits       
##  6 BE010 PI008      1 friends        
##  7 BE010 JM013      1 situational    
##  8 DC016 RM001      1 professional   
##  9 DC016 DO006      1 professional   
## 10 DO006 GT015      2 professional   
## # ... with 29 more rows
…
##  7     7 JO007 Male   White      President's son 
##  8     8 PI008 Male   White      CEO of bash     
##  9     9 JB009 Male   Black      TV host         
## 10    10 BE010 Female Australian TV host         
## 11    11 DC011 Male   Black      singer          
## 12    12 P012  Male   Indian     Journalist      
## 13    13 JM013 Female European   w/o Randal      
## 14    14 AG014 Male   Black      Journalist      
## 15    15 GT015 Male   <NA>       <NA>            
## 16    16 DC016 Female Asian      Head of NASA    
## 17    17 EM017 Male   White      <NA>            
## 18    18 BD018 Male   White      Astronaut       
## 19    19 MM019 Male   White      <NA>

## # A tibble: 39 x 2
##     from    to
##    <int> <int>
##  1    14     1
##  2    14     2
##  3    10     9
##  4    10     3
##  5    10     1
##  6    10     8
##  7    10    13
##  8    16     1
##  9    16     6
## 10     6    15
## # ... with 29 more rows
…
