…
```
## # A tibble: 39 x 4
##    from  to    weight `relation type`
##    <chr> <chr>  <dbl> <chr>          
##  1 AG014 RM001      2 situational    
##  2 AG014 KD002      1 situational    
##  3 BE010 JB009      6 professional   
##  4 BE010 RB003      1 situational    
##  5 BE010 RM001     10 benefits       
##  6 BE010 PI008      1 friends        
##  7 BE010 JM013      1 situational    
##  8 DC016 RM001      1 professional   
##  9 DC016 DO006      1 professional   
## 10 DO006 GT015      2 professional   
## # ... with 29 more rows
```
…
```
## # A tibble: 39 x 2
##     from    to
##    <int> <int>
##  1    14     1
##  2    14     2
##  3    10     9
##  4    10     3
##  5    10     1
##  6    10     8
##  7    10    13
##  8    16     1
##  9    16     6
## 10     6    15
## # ... with 29 more rows
```
…
