Creative Portfolio
…
##  7     7 Toby Damon          M     white main                    NA IT employee 
##  8     8 William  Hill       M     black main                    NA musician    
##  9     9 Miguel Rivas        M     other recurring               NA constructio…
## 10    10 Sophie              F     white recurring               NA nurse       
## 11    11 Tess Pearson        F     black recurring             2008 student     
## 12    12  Annie Pearson      F     black recurring               NA student     
## 13    13 Dr. Nathan Katowski M     white guest                   NA doctor      
## 14    14 Madison Simons      F     white recurring               NA <NA>        
## 15    15 Random Party Girls  F     other guest                   NA <NA>        
## 16    16 Director manny      M     white guest                   NA director    
## 17    17 Attendee fat group  F     white guest                   NA <NA>        
## 18    18 Alan thicke         M     white guest                   NA actor       
## 19    19 Firestation worker  M     white guest                   NA firestation…

## # A tibble: 21 × 4
##     from    to weight type  
##    <dbl> <dbl>  <dbl> <chr> 
##  1     1     2     31 family
##  2     4     4      1 self  
##  3     3    12      4 family
##  4     5    15      9 friend
##  5     5     4     28 family
##  6     1    13     27 family
##  7     2    13     21 family
##  8     5    16     11 work  
##  9     3     6     19 family
## 10     6    12      2 family
## # … with 11 more rows
…
