…
The graph below shows the number of schools that have banned alcohol, drugs and tobacco in respective states across the United States.
Alcohol, Drugs and Tobacco are the items that fall into the type of Promotion in the column.

<img src="{{< blogdown/postref >}}index_files/figure-html/plot-1-1.png" width="480" />
According to the data, Texas has the highest number of schools that have banned all the three items and Alaska has the lowest number of schools banning the items. Montana and Nevada have allowed drugs since there is no green colour for them in the graph.
To show the data more clearly, i have colour coded the items and have placed them in an ascending order.

Graph 2

This dataset is on the TV show, F.R.I.E.N.D.S. The chosen dataset is based on season 1, episode 7-10. The node dataset contains the information of the characters that are present in the given episodes. It contains their names, gender, profession and their personality traits.
the edge dataset contains the cpnversation between two people and the number of times they have spoken is given in the Weight coloumn. Type is the kind of relationship the two people share between eachother.
Hence we are trying to plot a network between the characters and see the strength of the relationships between each other.

## # A tibble: 22 x 7
##    Numbers Name             Sex   Profession     `Animal Lover` `Relationship ~`
##      <dbl> <chr>            <chr> <chr>          <chr>          <chr>           
##  1       1 "Chandler Bing " M     "statistical ~ No             Dating          
##  2       2 "Phoebe Buffay"  F     "Self - taugh~ Yes            Dating          
##  3       3 "Rachel Green"   F     "Waitress"     Yes            Dating          
##  4       4 "Ross Geller"    M     "Paleantologi~ Yes            Divorced        
##  5       5 "Monica Geller"  F     "Chef"         Yes            Dating          
##  6       6 "Joey Tribbiani" M     "Actor"        Yes            Single          
##  7       7 "Paolo"          M     "Actor"        Yes            Dating          
##  8       8 "Jill Goodacre"  F     "Model"        <NA>           Single          
##  9       9 "Mr. Heckles"    M     "Retired"      No             Widower         
## 10      10 "Jack Geller "   M     "Lawyer"       Yes            Married         
## # ... with 12 more rows, and 1 more variable: `Character Trait` <chr>

## # A tibble: 50 x 4
##    `From `    To Weight Type      
##      <dbl> <dbl>  <dbl> <chr>     
##  1       2     5     12 Friends   
##  2       1     8      1 Inftuation
##  3       5     1     10 Friends   
##  4       6     1     11 Roommates 
##  5       5     6      9 Friends   
##  6       4     2     12 Friends   
##  7       3     4     14 Inftuation
##  8       4     6     13 Friends   
##  9       3     9      1 Neighbours
## 10       2     9      1 Neighbours
## # ... with 40 more rows
…
